-------------------------------------------------------------------------------
Test set: com.kabisa.quotesapi.QuotesApiApplicationTests
-------------------------------------------------------------------------------
Tests run: 1, Failures: 0, Errors: 0, Skipped: 0, Time elapsed: 5.849 s - in com.kabisa.quotesapi.QuotesApiApplicationTests
